00	0.359054 0.0132918	0.412955 0.0128818	0.369588 0.0466702
01	0.651699 0.106134	1.25524 0.172753	1.00433 0.0383441
02	0.601622 0.0654468	0.794631 0.187363	1.02903 0.00745331
03	0.48073 0.0297021	0.986526 0.0316682	0.677123 0.208259
04	1.16109 2.54547	0.232305 0.130305	0.227995 0.366666
05	0.648699 0.043813	0.542519 0.0457932	0.878447 0.0908739
06	0.711746 0.0375173	0.907874 0.0550898	0.865268 0.197988
07	0.712149 0.0242677	1.03309 0.0140758	0.609782 0.114462
08	0.834912 0.593938	0.570229 0.270845	2.00667 0.11757
09	0.723398 0.0859917	0.906723 0.0276309	0.370715 0.0304787
10	0.555138 0.0509415	0.412895 0.0142442	0.81878 0.0907648
